@startuml


control "Snake : int _calcSnakeMinSteps(...)" as calcMin
participant "Area : game.area" as area
participant "Area : floodedArea" as flooded
participant "Area : prevFloodedArea" as prevFlooded

[->calcMin ++: int _calcSnakeMinSteps(area, goalPos, targetPos, startPos)
    note over calcMin : int steps = 0

    calcMin -> area ++ : getAreaField(startPos, true)
        return field value
    calcMin -> Utils ++ : eqPos(startPos, goalPos)
        return

    calcMin -> flooded ** : createArea(area.size)
    activate flooded
        flooded -> flooded : initialize
        return
    calcMin -> flooded ++ : setAreaField(startPos, true)
        flooded -> flooded : update
        return

    calcMin -> flooded ++ : getAreaField(targetPos, false)
        return targetReached

    loop while(!targetReached && steps >= 0)
        calcMin -> calcMin ++ : _floodSnakes(area, goalPos, floodedArea)
' START OF _FLOODSNAKES
            calcMin -> prevFlooded ** : copyArea(floodedArea)
            activate prevFlooded
                prevFlooded -> prevFlooded : initialize by floodedArea
                return

            loop pos in prevFloodedArea.size
                calcMin -> prevFlooded ++: getAreaField(pos, false)
                    return field value

                group if field is set

                    calcMin -> calcMin ++: _floodSnakePos(area, goalPos, floodedArea, pos)
' START OF _FLOODSNAKEPOS
                        note over calcMin : bool floodedAny = false
                        loop deltaPos in validSnakeStepDeltas
                            calcMin -> Utils ++ : movePos(pos, deltaPos)
                                return snakeEndPos
                            calcMin -> area ++ : getAreaField(snakeEndPos, true)
                                return fieldIsFree
                            calcMin -> Utils ++ : eqPos(goalPos, snakeEndPos)
                                return isEqualWithGoal
                            group if fieldIsFree and not isEqualWithGoal
                                calcMin -> flooded ++ : setAreaField(snakeEndPos, true)
                                    flooded -> flooded : check and change
                                    return field is changed
                                note over calcMin : if field changed then floodedAny = true
                            end
                       return floodedAny
' END OF _FLOODSNAKEPOS
                    end
                end
            return any new field reached
' END OF _FLOODSNAKES

        note over calcMin : if any new field reached: steps++\nelse step = -1
        end

    calcMin -> flooded !! : deleteArea

    deactivate calcMin

@enduml
